0.1 31.11355771019505
0.2 94.10660406827787
0.30000000000000004 156.78328992593566
0.4 211.08765951613563
0.5 246.60900226877362
0.7000000000000001 320.6540191546022
0.8 354.93113086308784
0.9 389.65369239877606
1.0 428.4355260713098
1.1 462.8703922265929
1.2000000000000002 497.3345591852159
1.4000000000000001 571.479658430639
1.5 606.044552817695
1.6 645.4625112524192
1.7000000000000002 680.0889647685808
1.8 714.6537623213076
1.9000000000000001 754.5223654736816
2.0 788.470953713964
2.1 823.1493846981691
2.2 863.1315079407077
2.3000000000000003 897.6243932717315
2.4000000000000004 932.2271547923172
2.5 971.2622050902271
2.6 972.5915147954025
2.7 1006.0503241507929
2.9000000000000004 1115.766346025269
3.0 1150.757791061194
3.1 1190.8370522482817
3.2 1224.9317750278065
3.3000000000000003 1259.8369808635243
3.4000000000000004 1299.7839623535522
3.5 1334.6797027121784
3.6 1369.1488742163715
3.7 1409.8034742088778
3.8000000000000003 1444.4747505325388
3.9000000000000004 1480.8707115524815
4.0 1520.1313335108166
4.1000000000000005 1555.5231611383329
4.2 1590.1838355647437
4.3 1630.7403045136598
4.4 1665.9054129887586
4.5 1701.253509030043
4.6000000000000005 1741.4598269541113
4.7 1776.61833759451
4.800000000000001 1811.770460043582
4.9 1852.575814610186
5.1000000000000005 1923.14015825829
5.2 1955.3923687162314
5.4 2017.1611283936559
5.5 2058.4308060220146
5.6000000000000005 2110.8364886195836
5.800000000000001 2187.3968314481967
5.9 2223.5744210758094
6.0 2258.1049768428757
6.1000000000000005 2300.100469691446
6.2 2335.1744754373563
6.300000000000001 2370.9715582292265
6.5 2447.057041753801
6.6000000000000005 2483.435298898088
6.7 2525.5124966639705
6.800000000000001 2560.6004825268146
6.9 2596.1222237661595
7.0 2638.638133475579
7.1000000000000005 2673.77813146701
7.2 2710.1785746179316
7.300000000000001 2751.848074930578
7.4 2788.1887855373984
7.5 2824.116208008628
7.6000000000000005 2865.8698401896554
7.7 2902.280494954695
7.800000000000001 2938.4350150693217
8.0 3015.720016751882
8.1 3052.2803052044023
8.200000000000001 3094.526176343953
8.3 3130.3218344301836
8.4 3167.147891050098
8.5 3208.439716939579
8.6 3244.971077492508
8.700000000000001 3281.5652609834056
8.8 3323.4087405743617
8.9 3361.343037440047
9.0 3396.134838089941
9.1 3439.8212935928277
9.200000000000001 3475.8406537413143
9.3 3512.90343835122
9.4 3555.2000377659
9.5 3591.791375276938
9.600000000000001 3630.1063509305973
9.700000000000001 3671.8784048981142
9.8 3708.747949568172
10.0 3789.2707067254814
10.100000000000001 3825.5132203915623
10.200000000000001 3862.232095377519
10.3 3905.3431673268037
10.700000000000001 4060.4835045734417
10.8 4098.6768535674455
10.9 4139.821804001632
11.0 4177.670144692839
11.100000000000001 4216.077934282359
11.200000000000001 4254.546550567926
11.4 4332.450079734572
11.5 4369.464695198456
11.600000000000001 4412.078173063847
11.700000000000001 4449.682216632755
11.8 4487.484269079568
11.9 4530.4264647538075
12.100000000000001 4608.996609238034
12.200000000000001 4651.151462928005
12.3 4689.547450310969
12.4 4727.422147111942
12.5 4768.5540442480615
12.600000000000001 4808.697707027805
12.700000000000001 4846.683205842587
13.0 4966.331237835652
13.100000000000001 5008.427986993091
13.200000000000001 5048.577575349809
13.4 5130.819483929203
13.5 5167.494694294679
13.600000000000001 5208.539685264503
13.700000000000001 5251.105081913111
13.8 5288.515705223225
13.9 5327.699480177344
14.100000000000001 5411.671228008448
14.200000000000001 5449.521353495791
14.3 5491.057844267571
14.4 5531.4882886631285
14.5 5569.923513788412
14.600000000000001 5612.368121135352
14.700000000000001 5652.773777983393
14.8 5689.315666294648
14.9 5735.784242273773
15.0 5776.185628420047
15.100000000000001 5814.383548772655
15.4 5885.650617561836
15.5 5981.360652480272
15.600000000000001 6021.337165526955
15.700000000000001 6058.443681457261
15.8 6104.047857091497
15.9 6144.574283799887
16.0 6182.917954148259
16.1 6226.10195994997
16.2 6267.411510670973
16.3 6306.092599672228
16.400000000000002 6349.107926283192
16.5 6389.374016202698
16.7 6474.398720543851
16.8 6512.607057144149
16.900000000000002 6552.96479068854
17.0 6595.830224203197
17.1 6636.448241389535
17.2 6676.212450041192
17.3 6721.618859477359
17.400000000000002 6761.2809851451275
17.5 6800.291208820708
17.7 6885.026507891619
17.8 6925.292638188303
18.0 7012.327323341336
18.1 7053.391327709844
18.2 7099.270387905548
18.3 7141.788089523671
18.400000000000002 7180.494375321117
18.5 7222.470444058959
18.6 7266.060855584332
18.7 7309.0033902725845
18.8 7354.318320164392
18.900000000000002 7398.454357490228
19.0 7436.425109349673
19.1 7484.610301178232
19.200000000000003 7524.547176960901
19.3 7566.07998882655
19.400000000000002 7613.602688331752
19.5 7655.531030414828
19.6 7695.797237129444
19.700000000000003 7746.527277960136
20.0 7806.438887674526
20.1 7918.700169953347
20.200000000000003 7960.628570329645
20.3 8004.504696020559
20.5 8090.873207213378
20.6 8135.17779259281
20.700000000000003 8177.739596233902
20.8 8220.634615502098
20.900000000000002 8264.9392477261
21.1 8349.323381621563
21.200000000000003 8396.923083791484
21.3 8438.368324627863
21.400000000000002 8480.644590384738
21.5 8526.06228586876
21.700000000000003 8611.797454665922
21.8 8659.605987987317
21.900000000000002 8701.186665020947
22.200000000000003 8829.798801540572
22.3 8877.457173655537
22.400000000000002 8912.32334036445
22.5 8966.000738390805
22.6 9007.566814618714
22.700000000000003 9047.862447304342
22.8 9097.651816743357
22.900000000000002 9141.092505357934
23.0 9179.480751037265
23.1 9228.60731714667
23.200000000000003 9273.409965089733
23.3 9314.26572037522
23.400000000000002 9362.513729397235
23.5 9404.563180511152
23.6 9447.125308565428
23.700000000000003 9494.769128160684
23.8 9536.302515637748
23.900000000000002 9578.154417489095
24.0 9626.493883405841
24.1 9669.194970046465
24.3 9678.15115681569
24.400000000000002 9720.63651507619
24.5 9849.380222289547
24.6 9897.869981684693
24.700000000000003 9940.520361080387
24.8 9983.781533614056
24.900000000000002 10032.893483414658
25.0 10077.83984733819
25.1 10121.873399217624
25.200000000000003 10167.86650159621
25.400000000000002 10256.139364235029
25.5 10306.668814401504
25.6 10347.008695111439
25.700000000000003 10390.602924435538
25.8 10439.408106895777
25.900000000000002 10483.317646762243
26.0 10526.543032629968
26.1 10574.505405980924
26.200000000000003 10618.217335218043
26.400000000000002 10710.389877012938
26.5 10757.199585945124
26.6 10803.134002159972
26.700000000000003 10850.66581688956
26.8 10895.274051519105
26.900000000000002 10939.25725896364
27.1 11034.816546695667
27.200000000000003 11079.96403097603
27.3 11128.772480212814
27.400000000000002 11173.283212378185
27.5 11221.227973309979
27.700000000000003 11316.4690896582
27.8 11357.714124177452
27.900000000000002 11410.678660244983
28.0 11454.20802068688
28.1 11498.147112487051
28.200000000000003 11546.578229555562
28.5 11584.763019761082
28.6 11733.458911968184
28.700000000000003 11775.99211360169
28.8 11824.965545258156
28.900000000000002 11872.91055539129
29.0 11916.590580436292
29.1 11965.973686073487
29.200000000000003 12010.953586379652
29.3 12051.90083093279
29.400000000000002 12108.824243627665
29.5 12154.213648007368
29.6 12198.83117081083
29.700000000000003 12251.660229929512
29.8 12294.252527307779
30.0 12393.046010266562
30.1 12438.435607054675
30.200000000000003 12486.999619492355
30.400000000000002 12587.84777461025
30.5 12638.60253814722
30.6 12686.60948479683
30.700000000000003 12738.256926140819
30.8 12781.226668249874
30.900000000000002 12834.660438592131
31.1 12931.712571061544
31.200000000000003 12985.765332973255
31.3 13030.669116931647
31.400000000000002 13074.095308314454
31.5 13130.945397257545
31.6 13174.549230746561
31.700000000000003 13226.061352992585
31.8 13281.325489586692
31.900000000000002 13331.202424119785
32.0 13380.99036858406
32.300000000000004 13407.465651145076
32.4 13463.847623448892
32.5 13631.827576791047
32.7 13731.813333755767
32.800000000000004 13775.207739053598
32.9 13819.613568958459
33.0 13871.88338792812
33.1 13926.175781018908
33.2 13971.037778608072
33.300000000000004 14020.552613048869
33.4 14074.620590460665
33.5 14124.275448405437
33.6 14170.647280990706
33.800000000000004 14274.54858321935
33.9 14321.20676858921
34.1 14363.800636775843
34.2 14466.88654929741
34.300000000000004 14517.688585664388
34.4 14560.900979280528
34.5 14608.861411982432
34.6 14659.315822114997
34.7 14708.13543310883
34.9 14808.972412458483
35.0 14858.729227286016
35.1 14906.961289571718
35.2 14957.763810338067
35.300000000000004 15005.450989058454
35.4 15055.207931704437
35.5 15107.070896878102
35.6 15154.865908772132
35.7 15199.694218935012
35.800000000000004 15253.641788507754
36.1 15270.106990206421
36.2 15312.293424011163
36.300000000000004 15483.182522573525
36.4 15547.947123012247
36.5 15599.882559736505
36.6 15648.566723172036
36.7 15704.283416750599
36.800000000000004 15751.699065523646
36.9 15798.887904667845
37.1 15894.928580949905
37.2 15943.477451115297
37.300000000000004 15995.639742278448
37.4 16044.538179176077
37.5 16091.241746533187
37.6 16144.979470784274
37.9 16294.739415521924
38.0 16343.30350663079
38.1 16387.51472595543
38.2 16447.433319009047
38.300000000000004 16495.394138501735
38.400000000000006 16540.903939052296
38.5 16596.51321827814
38.7 16695.230921327657
38.800000000000004 16749.556447297182
38.900000000000006 16801.764252429064
39.0 16853.940729083126
39.2 16952.960071247468
39.300000000000004 16999.786574400947
39.400000000000006 17057.740830110157
39.5 17099.170142295232
39.7 17207.378758659146
40.0 17276.258442227077
