# Cell-0, calibrated using 5 points per light level, at gain level 2

0.0 0.0 0.0
1.0 1.1858543059453381 0.0
2.0 2.151423971670104 0.0
3.0 3.145203047621288 0.0
4.0 4.116622979024634 0.0
5.0 5.088875773082461 0.0
6.0 6.039746596318102 0.0
7.0 6.9918204360991485 0.0
8.0 7.9393934010056295 0.010326742737873928
9.0 8.881298371749303 0.016300745936394707
10.0 9.811418049672223 0.013948427058129561
11.0 10.724941320624517 0.0158542299624452
12.0 11.651069854324419 0.00993165201472337
13.0 12.548795940012866 0.009838072063784864
14.0 13.48309801365846 0.01997628494288735
15.0 14.383367437577864 0.021800502366169573
16.0 15.273992766989286 0.026638783263127963
17.0 7.1421967605245085 0.01392702007280617
18.0 17.076010221310653 0.02823761413814147
19.0 17.970748796008206 0.03507179082296098
20.0 17.54358292402388 0.03164483209120574
21.0 19.76191714809807 0.04008084604559449
22.0 20.634065552596773 0.03295090915630342
23.0 21.51752044760145 0.0507331386509161
24.0 22.410263669855023 0.05166338877941774
25.0 10.473753411701741 0.03745908949862297
26.0 24.158121755505654 0.04951362321871863
27.0 25.04628378468514 0.05833629411447191
28.0 25.92847175363202 0.065658304666008
29.0 26.791239799776765 0.06534637519405524
30.0 27.69119305002936 0.07414706481034042
31.0 28.553690057501377 0.0702854812803123
32.0 29.43916129162422 0.06744267508520449
33.0 30.300156118551133 0.08174695394822389
34.0 31.17484495813259 0.08904837512997138
35.0 32.048883370445765 0.0899602656153979
36.0 32.92358747156378 0.09164653212489764
37.0 33.81250245981499 0.0984573959417281
38.0 32.35922029657908 0.10322257864122705
39.0 35.54420937512198 0.09650790660999818
40.0 32.54061622373004 7.867541183134317
