# Cell-12, calibrated using 5 points per light level, at gain level 2

0.0 0.0 0.0
1.0 1.1479885814952382 0.0
2.0 2.145412864737985 0.0
3.0 3.1769125772544187 0.0
4.0 4.132876884934308 0.010471300267372996
5.0 5.095355508515016 0.0
6.0 6.073225329130776 0.027933119550666845
7.0 7.0462358174027955 0.0
8.0 7.98673154679984 8.881784197001252e-16
9.0 8.970509953807532 0.0
10.0 9.894467972629668 0.020511106257769283
11.0 10.850432773034242 0.0
12.0 11.787850570091978 0.024667443037333973
13.0 12.721666854982773 0.011824171945031596
14.0 13.66573014625323 0.013287542790171615
15.0 14.586324548907532 0.019607586049267666
16.0 15.51167415351281 0.01945084964490107
17.0 16.448067886476004 0.028629672343510035
18.0 8.491259634916215 0.025423958270219774
19.0 18.26562069659369 0.01896946929542196
20.0 19.198389071822813 0.04285950408375857
21.0 20.10350450042153 0.0445975558220593
22.0 21.01709518029562 0.03102098338291483
23.0 21.93103437399476 0.04827271732448516
24.0 22.85518201008833 0.04761147507354113
25.0 23.75650503018854 0.05575906225685146
26.0 24.6646889222238 0.04663777605447883
27.0 25.59276504739972 0.06811255961213172
28.0 26.50042609817486 0.06760991043984992
29.0 27.410163132074626 0.0711803048391888
30.0 28.326176020356307 0.07872226201389815
31.0 29.220053087913346 0.0793002534525482
32.0 30.131478671543647 0.07343370415488605
33.0 31.031054940492634 0.08477201966740627
34.0 16.112163543356765 0.07343678259940561
35.0 30.026948864684186 0.09324674703524113
36.0 30.868601600623187 0.09321082906235205
37.0 34.67562430694262 0.10674320608639314
38.0 35.58742706312398 0.11049718981776033
39.0 36.48740162972702 0.12002416849715009
40.0 37.414213489042524 0.11382921646534724
