# Cell-1, calibrated using 5 points per light level, at gain level 2

0.0 0.0 0.0
1.0 1.1073461643718165 0.0
2.0 2.0232292347888254 0.0
3.0 2.89872809094566 0.0
4.0 3.9754555531010745 0.0
5.0 4.867435505164476 0.0
6.0 5.856964370336221 0.08476758728297701
7.0 6.773016891751702 0.0
8.0 7.643008381990367 0.0
9.0 8.676065997471415 0.0
10.0 9.547985198739216 0.031098993685895946
11.0 10.543882431850419 0.10273610535085188
12.0 11.438937256031762 0.0
13.0 12.275621182607482 0.0
14.0 13.26835972648841 1.7763568394002505e-15
15.0 14.092710548062707 1.7763568394002505e-15
16.0 15.059759619750986 0.013765392133065968
17.0 15.918413201743794 0.07770960414205373
18.0 16.81932436758773 0.0
19.0 17.788696483373805 0.0888720990814505
20.0 18.628903009800602 0.028897992692242268
21.0 19.586427258552416 0.0
22.0 20.46514814725649 0.061141619924991626
23.0 21.27345996556836 0.0
24.0 22.253875703250667 0.028169969562955543
25.0 23.15488701863695 0.05974549298876611
26.0 24.065624714797224 0.05939071988535859
27.0 24.96827083710153 0.0980880937753643
28.0 25.85961365726588 0.0936849170412273
29.0 26.74497160044603 0.07130968442442916
30.0 27.62964804159497 0.08242626876597213
31.0 28.50850278895006 0.11333510244606661
32.0 29.36841069973763 0.05703456695020605
33.0 30.319586810964875 0.11183434787850756
34.0 31.224529881588136 0.10523672762613379
35.0 32.149862416504064 0.14196569588791827
36.0 33.07082331339647 0.08161893274673275
37.0 33.9370617781208 0.14197242470234545
38.0 34.818973093754074 0.09041858513810438
39.0 35.74687525605954 0.1161493135136921
40.0 36.631897237724495 0.14012763987240673
