<?xml version="1.0" encoding="UTF-8" standalone="no"?>
<!-- Created with Inkscape (http://www.inkscape.org/) -->

<svg
   xmlns:dc="http://purl.org/dc/elements/1.1/"
   xmlns:cc="http://creativecommons.org/ns#"
   xmlns:rdf="http://www.w3.org/1999/02/22-rdf-syntax-ns#"
   xmlns:svg="http://www.w3.org/2000/svg"
   xmlns="http://www.w3.org/2000/svg"
   xmlns:sodipodi="http://sodipodi.sourceforge.net/DTD/sodipodi-0.dtd"
   xmlns:inkscape="http://www.inkscape.org/namespaces/inkscape"
   width="52.211109mm"
   height="23.818701mm"
   viewBox="0 0 184.99999 84.396971"
   id="svg7247"
   version="1.1"
   inkscape:version="0.91 r13725"
   sodipodi:docname="button_cancel_green.svg">
  <defs
     id="defs7249" />
  <sodipodi:namedview
     id="base"
     pagecolor="#ffffff"
     bordercolor="#666666"
     borderopacity="1.0"
     inkscape:pageopacity="0.0"
     inkscape:pageshadow="2"
     inkscape:zoom="2.8"
     inkscape:cx="84.913868"
     inkscape:cy="67.197952"
     inkscape:document-units="px"
     inkscape:current-layer="g8791"
     showgrid="false"
     fit-margin-top="0"
     fit-margin-left="0"
     fit-margin-right="0"
     fit-margin-bottom="0"
     inkscape:window-width="1920"
     inkscape:window-height="1004"
     inkscape:window-x="0"
     inkscape:window-y="24"
     inkscape:window-maximized="1" />
  <metadata
     id="metadata7252">
    <rdf:RDF>
      <cc:Work
         rdf:about="">
        <dc:format>image/svg+xml</dc:format>
        <dc:type
           rdf:resource="http://purl.org/dc/dcmitype/StillImage" />
        <dc:title></dc:title>
      </cc:Work>
    </rdf:RDF>
  </metadata>
  <g
     inkscape:label="Layer 1"
     inkscape:groupmode="layer"
     id="layer1"
     transform="translate(-315.67357,-221.51882)">
    <g
       transform="matrix(3.2742318,0,0,3.2742318,-178.90467,-154.81427)"
       id="g8791">
      <g
         id="g4249"
         transform="matrix(0.95340865,0,0,0.95340865,7.0377013,6.5560519)">
        <path
           sodipodi:nodetypes="ccccc"
           inkscape:connector-curvature="0"
           id="path4943-7"
           d="m 209.98255,134.68234 c 0.0174,11.71123 -58.50202,3.5742 -58.62871,-7.48627 0.12669,-11.06047 58.64611,-19.1975 58.62871,-7.48627 0.0398,7.77623 0.04,9.46789 5e-5,14.97255 z"
           style="fill:#00c173;fill-opacity:1;fill-rule:evenodd;stroke:#000000;stroke-width:0.60430622;stroke-linecap:round;stroke-linejoin:round;stroke-miterlimit:4;stroke-dasharray:none;stroke-opacity:1" />
        <text
           xml:space="preserve"
           style="font-style:normal;font-variant:normal;font-weight:bold;font-stretch:normal;font-size:13.20502758px;line-height:125%;font-family:Jellee;-inkscape-font-specification:'Jellee, Bold';text-align:center;letter-spacing:0px;word-spacing:0px;writing-mode:lr-tb;text-anchor:middle;fill:#ffffff;fill-opacity:1;stroke:#000000;stroke-width:0.60430622;stroke-linecap:round;stroke-linejoin:round;stroke-miterlimit:4;stroke-dasharray:none;stroke-opacity:1"
           x="156.80379"
           y="131.90999"
           id="text4759-9-6-4"
           sodipodi:linespacing="125%"><tspan
             id="tspan4923-1-0"
             sodipodi:role="line"
             x="156.80379"
             y="131.90999"
             style="font-style:normal;font-variant:normal;font-weight:bold;font-stretch:normal;font-size:12.47069454px;line-height:0.8459686px;font-family:Jellee;-inkscape-font-specification:'Jellee, Bold';text-align:start;letter-spacing:0px;writing-mode:lr-tb;text-anchor:start;fill:#ffffff;stroke:#000000;stroke-width:0.60430622;stroke-linecap:round;stroke-linejoin:round;stroke-miterlimit:4;stroke-dasharray:none;stroke-opacity:1">CANCEL</tspan></text>
      </g>
    </g>
  </g>
</svg>
